{
  "defaultSeverity": "error",
  "extends": ["tslint:latest", "tslint-config-standard", "tslint-react", "tslint-config-prettier"],
  "linterOptions": {
    "exclude": ["config/**/*.js", "node_modules/**/*.ts"]
  },
  "rules": {
    "prettier": true,
    "no-submodule-imports": false,
    "no-implicit-dependencies": false,
    "no-shadowed-variable": false,
    "arrow-return-shorthand": true,
    "no-unnecessary-callback-wrapper": true,
    "prefer-template": true,
    "object-literal-sort-keys": false,
    "ordered-imports": false
  },
  "rulesDirectory": ["tslint-plugin-prettier"]
}
